…
#> 5 gene                196
#> 6 variation type        5
#> 
#> $per_type
#> # A tibble: 5 × 6
#>   `variation type`                Name marker drug_agent drug_class  gene
#>   <chr>                          <int>  <int>      <int>      <int> <int>
#> 1 Gene presence detected          5258    164         22         17   164
#> 2 Inactivating mutation detected   615     42         15         14    42
#> 3 Nucleotide variant detected       57      2          3          3     1
#> 4 Promoter variant detected         93      4          1          1     1
#> 5 Protein variant detected        4920     65         18         16    21
#> 
#> $drugs
#> # A tibble: 44 × 6
#>    drug_agent antibiotic                  drug_class       markers samples  hits
#>    <ab>       <chr>                       <chr>              <int>   <int> <int>
#>  1 AMC        Amoxicillin/clavulanic acid Aminopenicillins       2      57    57
#>  2 AMK        Amikacin                    Aminoglycosides        6     176   180
#>  3 AMP        Ampicillin                  Aminopenicillins       6     749   749
#>  4 APR        Apramycin                   Aminoglycosides        1      98    98
#>  5 ATM        Aztreonam                   Monobactams            2      39    39
#>  6 AZM        Azithromycin                Macrolides             4     472   478
#>  7 BLM        Bleomycin                   Glycopeptides          2      40    40
#>  8 CHL        Chloramphenicol             Phenicols             15    1121  1181
#>  9 CLI        Clindamycin                 Lincosamides           1      26    26
#> 10 CLR        Clarithromycin              Macrolides             1       1     1
#> # ℹ 34 more rows
#> 
#> $markers
#> # A tibble: 349 × 6
#>    marker      drug_agent antibiotic  drug_class      `variation type`         n
#>    <chr>       <ab>       <chr>       <chr>           <chr>                <int>
#>  1 aac(2')-IIa KAS        Kasugamycin Aminoglycosides Gene presence detec…     1
#>  2 aac(3)-II   GEN        Gentamicin  Aminoglycosides Inactivating mutati…     1
#>  3 aac(3)-IId  GEN        Gentamicin  Aminoglycosides Gene presence detec…   204
#>  4 aac(3)-IId  GEN        Gentamicin  Aminoglycosides Inactivating mutati…     1
#>  5 aac(3)-IIe  GEN        Gentamicin  Aminoglycosides Gene presence detec…   120
#>  6 aac(3)-IIg  GEN        Gentamicin  Aminoglycosides Gene presence detec…     2
#>  7 aac(3)-IVa  APR        Apramycin   Aminoglycosides Gene presence detec…    98
#>  8 aac(3)-IVa  GEN        Gentamicin  Aminoglycosides Gene presence detec…    98
#>  9 aac(3)-IVa  TOB        Tobramycin  Aminoglycosides Gene presence detec…    98
#> 10 aac(3)-Ib   GEN        Gentamicin  Aminoglycosides Gene presence detec…     1
#> # ℹ 339 more rows
…
