…
### 1. Genotype table

#### 1a. Importing genotype data to AMRgen’s standard table format

The
[`import_amrfp()`](https://AMRverse.github.io/AMRgen/reference/import_amrfp.md)
function lets you load genotype data from AMRFinderPlus output files,
and process it to generate an object with the key columns needed to work
with the `AMRgen` package.

``` r
# Example AMRFinderPlus genotyping output (from Allthebacteria project)
ecoli_geno_raw
#> # A tibble: 45,228 × 28
#>    Name      `Protein identifier` `Contig id`  Start   Stop Strand `Gene symbol`
#>    <chr>     <lgl>                <chr>        <dbl>  <dbl> <chr>  <chr>        
#>  1 SAMN0317… NA                   SAMN031776…  74721  75851 -      blaEC        
#>  2 SAMN0317… NA                   SAMN031776… 166214 169315 +      acrF         
#>  3 SAMN0317… NA                   SAMN031776…  20678  22033 -      glpT_E448K   
#>  4 SAMN0317… NA                   SAMN031776…    758   1969 -      floR         
#>  5 SAMN0317… NA                   SAMN031776…   4440   5666 +      mdtM         
#>  6 SAMN0317… NA                   SAMN031776…   3941   4798 +      blaTEM-1     
#>  7 SAMN0317… NA                   SAMN031776…    142    954 +      sul2         
#>  8 SAMN0317… NA                   SAMN031776…   1018   1818 +      aph(3'')-Ib  
#>  9 SAMN0317… NA                   SAMN031776…   1821   2654 +      aph(6)-Id    
#> 10 SAMN0317… NA                   SAMN031776…    788   1957 +      tet(A)       
#> # ℹ 45,218 more rows
#> # ℹ 21 more variables: `Sequence name` <chr>, Scope <chr>,
#> #   `Element type` <chr>, `Element subtype` <chr>, Class <chr>, Subclass <chr>,
#> #   Method <chr>, `Target length` <dbl>, `Reference sequence length` <dbl>,
#> #   `% Coverage of reference sequence` <dbl>,
#> #   `% Identity to reference sequence` <dbl>, `Alignment length` <dbl>,
#> #   `Accession of closest sequence` <chr>, `Name of closest sequence` <chr>, …
…
The
[`summarise_geno()`](https://AMRverse.github.io/AMRgen/reference/summarise_geno.md)
function also returns a list of drugs and classes represented in the
table, and the associated number of unique markers, unique samples, and
total hits for each drug/class. Ordering by sample count, we see the
most common class is efflux… there are only 3 efflux-associated markers
but there are 11,828 hits to these across 5,258 samples (i.e. all
samples have at least one). Next most common are markers associated with
beta-lactams… there are 22 different markers with 6,379 hits across
4,989 of our 5,258 samples.

``` r
ecoli_geno_summary$drugs
#> # A tibble: 44 × 6
#>    drug_agent antibiotic                  drug_class       markers samples  hits
#>    <ab>       <chr>                       <chr>              <int>   <int> <int>
#>  1 AMC        Amoxicillin/clavulanic acid Aminopenicillins       2      57    57
#>  2 AMK        Amikacin                    Aminoglycosides        6     176   180
#>  3 AMP        Ampicillin                  Aminopenicillins       6     749   749
#>  4 APR        Apramycin                   Aminoglycosides        1      98    98
#>  5 ATM        Aztreonam                   Monobactams            2      39    39
#>  6 AZM        Azithromycin                Macrolides             4     472   478
#>  7 BLM        Bleomycin                   Glycopeptides          2      40    40
#>  8 CHL        Chloramphenicol             Phenicols             15    1121  1181
#>  9 CLI        Clindamycin                 Lincosamides           1      26    26
#> 10 CLR        Clarithromycin              Macrolides             1       1     1
#> # ℹ 34 more rows

# Order by sample count per drug/class
ecoli_geno_summary$drugs %>% arrange(-samples)
#> # A tibble: 44 × 6
#>    drug_agent antibiotic      drug_class                markers samples  hits
#>    <ab>       <chr>           <chr>                       <int>   <int> <int>
#>  1 NA         NA              Efflux                          3    5258 11828
#>  2 NA         NA              Beta-lactams                   22    4989  6379
#>  3 FOS        Fosfomycin      Phosphonics                     9    4861  6411
#>  4 COL        Colistin        Polymyxins                     11    3415  3436
#>  5 NA         NA              Tetracyclines                  13    2634  2929
#>  6 NA         NA              Quinolones                     45    1822  4497
#>  7 STR1       Streptomycin    Aminoglycosides                13    1669  3291
#>  8 SSS        Sulfonamide     Sulfonamides                    5    1500  1876
#>  9 CHL        Chloramphenicol Phenicols                      15    1121  1181
#> 10 NA         NA              Cephalosporins (3rd gen.)      32    1065  1285
#> # ℹ 34 more rows
```

Ordering by marker count, we see the classes with the most different
markers associated are quinolones (45 unique markers detected across
1,822 unique samples), third generation cephalosporins (32 unique
markers detected across 1,065 unique samples) and beta-lactams (22
unique markers detected across 4,989 unique samples).

``` r
ecoli_geno_summary$drugs %>% arrange(-markers)
#> # A tibble: 44 × 6
#>    drug_agent antibiotic      drug_class                markers samples  hits
#>    <ab>       <chr>           <chr>                       <int>   <int> <int>
#>  1 NA         NA              Quinolones                     45    1822  4497
#>  2 NA         NA              Cephalosporins (3rd gen.)      32    1065  1285
#>  3 NA         NA              Beta-lactams                   22    4989  6379
#>  4 NA         NA              Trimethoprims                  16     824   877
#>  5 CHL        Chloramphenicol Phenicols                      15    1121  1181
#>  6 GEN        Gentamicin      Aminoglycosides                14     687   704
#>  7 STR1       Streptomycin    Aminoglycosides                13    1669  3291
#>  8 NA         NA              Carbapenems                    13      62    64
#>  9 NA         NA              Tetracyclines                  13    2634  2929
#> 10 COL        Colistin        Polymyxins                     11    3415  3436
#> # ℹ 34 more rows
```

The
[`summarise_geno()`](https://AMRverse.github.io/AMRgen/reference/summarise_geno.md)
function also returns a list of markers represented in the table,
annotated with the associated drugs/classes and variation types. The
column ‘n’ indicates the count of hits detected per marker. Ordering by
this column, we see the most common markers are acrF, blaEC and
glpT_E448K.

``` r
ecoli_geno_summary$markers %>% arrange(-n)
#> # A tibble: 349 × 6
#>    marker     drug_agent antibiotic drug_class    `variation type`             n
#>    <chr>      <ab>       <chr>      <chr>         <chr>                    <int>
#>  1 acrF       NA         NA         Efflux        Gene presence detected    5002
#>  2 blaEC      NA         NA         Beta-lactams  Gene presence detected    4749
#>  3 glpT_E448K FOS        Fosfomycin Phosphonics   Protein variant detected  4731
#>  4 mdtM       NA         NA         Efflux        Gene presence detected    3675
#>  5 emrD       NA         NA         Efflux        Gene presence detected    2914
#>  6 pmrB_E123D COL        Colistin   Polymyxins    Protein variant detected  1873
#>  7 pmrB_Y358N COL        Colistin   Polymyxins    Protein variant detected  1531
#>  8 blaTEM-1   NA         NA         Beta-lactams  Gene presence detected    1279
#>  9 uhpT_E350Q FOS        Fosfomycin Phosphonics   Protein variant detected  1145
#> 10 tet(A)     NA         NA         Tetracyclines Gene presence detected    1087
#> # ℹ 339 more rows
```
…
# Sort by marker frequency to see the most common markers
ecoli_geno_summary$markers %>%
  filter(drug_class == "Quinolones") %>%
  arrange(-n)
#> # A tibble: 45 × 6
#>    marker         drug_agent antibiotic drug_class `variation type`            n
#>    <chr>          <ab>       <chr>      <chr>      <chr>                   <int>
#>  1 gyrA_S83L      NA         NA         Quinolones Protein variant detect…   855
#>  2 marR_S3N       NA         NA         Quinolones Protein variant detect…   726
#>  3 parC_S80I      NA         NA         Quinolones Protein variant detect…   639
#>  4 gyrA_D87N      NA         NA         Quinolones Protein variant detect…   622
#>  5 parE_I529L     NA         NA         Quinolones Protein variant detect…   442
#>  6 parC_E84V      NA         NA         Quinolones Protein variant detect…   294
#>  7 aac(6')-Ib-cr5 NA         NA         Quinolones Gene presence detected    153
#>  8 parE_D475E     NA         NA         Quinolones Protein variant detect…   147
#>  9 parE_L416F     NA         NA         Quinolones Protein variant detect…   134
#> 10 parE_S458A     NA         NA         Quinolones Protein variant detect…   111
#> # ℹ 35 more rows
…
### 2. Phenotype table

#### 2a. Importing phenotype datato AMRgen’s standard table format

The
[`import_ast()`](https://AMRverse.github.io/AMRgen/reference/import_ast.md)
function imports AST data from NCBI or other standard formats

``` r
# Example E. coli AST data from NCBI
# This one has already been imported and phenotypes interpreted from assay data
ecoli_ast
#> # A tibble: 4,168 × 11
#>    id         drug_agent    mic  disk pheno_clsi ecoff guideline method platform
#>    <chr>      <ab>        <mic> <dsk> <sir>      <sir> <chr>     <chr>  <chr>   
#>  1 SAMN11638… CIP        256.00    NA   R         NWT  CLSI      broth… NA      
#>  2 SAMN05729… CIP         64.00    NA   R         NWT  CLSI      Etest  Etest   
#>  3 SAMN10620… CIP        >=4.00    NA   R         NWT  CLSI      broth… NA      
#>  4 SAMN10620… CIP        >=4.00    NA   R         NWT  CLSI      broth… NA      
#>  5 SAMN10620… CIP        <=0.25    NA   S          NI  CLSI      broth… NA      
#>  6 SAMN10620… CIP        >=4.00    NA   R         NWT  CLSI      broth… NA      
#>  7 SAMN10620… CIP        >=4.00    NA   R         NWT  CLSI      broth… NA      
#>  8 SAMN10620… CIP        >=4.00    NA   R         NWT  CLSI      broth… NA      
#>  9 SAMN10620… CIP        >=4.00    NA   R         NWT  CLSI      broth… NA      
#> 10 SAMN04122… CIP          1.00    NA   R         NWT  CLSI      broth… Vitek   
#> # ℹ 4,158 more rows
#> # ℹ 2 more variables: pheno_provided <sir>, spp_pheno <mo>
…
``` r
# Compare reference distribution to example E. coli data
ecoli_cip <- ecoli_ast$mic[ecoli_ast$drug_agent == "CIP"]

ecoli_cip_vs_ref <- compare_mic_with_eucast(ecoli_cip, ab = "cipro", mo = "E. coli")
```

``` r
ecoli_cip_vs_ref
#> # A tibble: 32 × 3
#>    value    user eucast
#>  * <fct>   <int>  <int>
#>  1 0.002       0     14
#>  2 0.004       0    189
#>  3 0.008       0   3952
#>  4 <0.015     41      0
#>  5 <=0.015  2642      0
#>  6 0.016       0   7238
#>  7 0.03       69   1355
#>  8 <=0.06     11      0
#>  9 0.06        5    356
#> 10 0.12       34      0
#> # ℹ 22 more rows
…
# Extract model summary details using `logistf_details()`
modelR_summary <- logistf_details(modelR)

modelR_summary
#> # A tibble: 24 × 5
#>    marker         est ci.lower ci.upper    pval
#>  * <chr>        <dbl>    <dbl>    <dbl>   <dbl>
#>  1 (Intercept) -5.32    -5.83     -4.80 0      
#>  2 gyrA_S83L    5.11     4.44      5.77 0      
#>  3 gyrA_D87Y    0.609   -3.23      4.45 0.756  
#>  4 gyrA_D87N    1.03    -1.49      3.56 0.422  
#>  5 parC_S80I    3.53     1.06      6.00 0.00507
#>  6 parE_S458A  -0.671   -3.46      2.11 0.637  
#>  7 parC_S80R    0.908   -0.940     2.76 0.336  
#>  8 parE_L416F   1.09    -1.81      3.98 0.462  
#>  9 parC_S57T    1.42    -1.43      4.27 0.330  
#> 10 soxS_A12S    1.58    -1.33      4.50 0.287  
#> # ℹ 14 more rows
…
# Note the matrix output is the same as cip_bin.
models$binary_matrix
#> # A tibble: 3,629 × 51
#>    id        pheno ecoff     mic  disk     R   NWT gyrA..Ser83Leu gyrA..Asp87Tyr
#>    <chr>     <sir> <sir>   <mic> <dsk> <dbl> <dbl>          <dbl>          <dbl>
#>  1 SAMN0317…   S     WT  <=0.015    NA     0     0              0              0
#>  2 SAMN0317…   S     WT  <=0.015    NA     0     0              0              0
#>  3 SAMN0317…   S     WT  <=0.015    NA     0     0              0              0
#>  4 SAMN0317…   S    NWT    0.250    NA     0     1              1              0
#>  5 SAMN0317…   S    NWT    0.120    NA     0     1              0              1
#>  6 SAMN0317…   S     WT  <=0.015    NA     0     0              0              0
#>  7 SAMN0317…   S     WT  <=0.015    NA     0     0              0              0
#>  8 SAMN0317…   R    NWT   >4.000    NA     1     1              1              0
#>  9 SAMN0317…   S    NWT    0.250    NA     0     1              1              0
#> 10 SAMN0317…   R    NWT   >4.000    NA     1     1              1              0
#> # ℹ 3,619 more rows
#> # ℹ 42 more variables: gyrA..Asp87Asn <dbl>, parC..Ser80Ile <dbl>,
#> #   parE..Ser458Ala <dbl>, parC..Ser80Arg <dbl>, parE..Leu416Phe <dbl>,
#> #   qnrB6 <dbl>, gyrA..Asp87Gly <dbl>, parC..Ser57Thr <dbl>,
#> #   parC..Glu84Ala <dbl>, soxS..Ala12Ser <dbl>, qnrB2 <dbl>, qnrS2 <dbl>,
#> #   parC..Glu84Lys <dbl>, parC..Ala56Thr <dbl>, qnrB19 <dbl>,
#> #   `aac(6')-Ib-cr5` <dbl>, parC..Glu84Val <dbl>, parE..Ile529Leu <dbl>, …
```
…
``` r

# Output table
soloPPV_cipro$solo_stats
#> # A tibble: 40 × 8
#>    marker         category     x     n   ppv    se ci.lower ci.upper
#>    <chr>          <chr>    <dbl> <int> <dbl> <dbl>    <dbl>    <dbl>
#>  1 aac(6')-Ib-cr5 R            0     1     0     0        0        0
#>  2 gyrA_D87N      R            0     1     0     0        0        0
#>  3 gyrA_D87Y      R            0     3     0     0        0        0
#>  4 gyrA_S83A      R            0     3     0     0        0        0
#>  5 parC_A56T      R            0     6     0     0        0        0
#>  6 parC_S57T      R            0    23     0     0        0        0
#>  7 parE_D475E     R            0    61     0     0        0        0
#>  8 parE_I355T     R            0    24     0     0        0        0
#>  9 parE_I529L     R            0    16     0     0        0        0
#> 10 qnrA1          R            0     2     0     0        0        0
#> # ℹ 30 more rows

# Interim matrices with data used to compute stats and plots
soloPPV_cipro$solo_binary
#> # A tibble: 306 × 9
#>    id           pheno ecoff   mic  disk     R   NWT marker    value
#>    <chr>        <sir> <sir> <mic> <dsk> <dbl> <dbl> <chr>     <dbl>
#>  1 SAMN03177618   S    NWT   0.25    NA     0     1 gyrA_S83L     1
#>  2 SAMN03177619   S    NWT   0.12    NA     0     1 gyrA_D87Y     1
#>  3 SAMN03177623   S    NWT   0.25    NA     0     1 gyrA_S83L     1
#>  4 SAMN03177631   S    NWT   0.25    NA     0     1 gyrA_S83L     1
#>  5 SAMN03177635   S    NWT   0.25    NA     0     1 gyrA_S83L     1
#>  6 SAMN03177637   S    NWT   0.25    NA     0     1 gyrA_S83L     1
#>  7 SAMN03177638   S    NWT   0.25    NA     0     1 qnrB6         1
#>  8 SAMN03177639   S    NWT   0.12    NA     0     1 gyrA_S83L     1
#>  9 SAMN03177643   S    NWT   0.25    NA     0     1 gyrA_S83L     1
#> 10 SAMN03177646   S    NWT   0.25    NA     0     1 gyrA_S83L     1
#> # ℹ 296 more rows

soloPPV_cipro$amr_binary
#> # A tibble: 3,629 × 51
#>    id        pheno ecoff     mic  disk     R   NWT gyrA_S83L gyrA_D87Y gyrA_D87N
#>    <chr>     <sir> <sir>   <mic> <dsk> <dbl> <dbl>     <dbl>     <dbl>     <dbl>
#>  1 SAMN0317…   S     WT  <=0.015    NA     0     0         0         0         0
#>  2 SAMN0317…   S     WT  <=0.015    NA     0     0         0         0         0
#>  3 SAMN0317…   S     WT  <=0.015    NA     0     0         0         0         0
#>  4 SAMN0317…   S    NWT    0.250    NA     0     1         1         0         0
#>  5 SAMN0317…   S    NWT    0.120    NA     0     1         0         1         0
#>  6 SAMN0317…   S     WT  <=0.015    NA     0     0         0         0         0
#>  7 SAMN0317…   S     WT  <=0.015    NA     0     0         0         0         0
#>  8 SAMN0317…   R    NWT   >4.000    NA     1     1         1         0         1
#>  9 SAMN0317…   S    NWT    0.250    NA     0     1         1         0         0
#> 10 SAMN0317…   R    NWT   >4.000    NA     1     1         1         0         1
#> # ℹ 3,619 more rows
#> # ℹ 41 more variables: parC_S80I <dbl>, parE_S458A <dbl>, parC_S80R <dbl>,
#> #   parE_L416F <dbl>, qnrB6 <dbl>, gyrA_D87G <dbl>, parC_S57T <dbl>,
#> #   parC_E84A <dbl>, soxS_A12S <dbl>, qnrB2 <dbl>, qnrS2 <dbl>,
#> #   parC_E84K <dbl>, parC_A56T <dbl>, qnrB19 <dbl>, `aac(6')-Ib-cr5` <dbl>,
#> #   parC_E84V <dbl>, parE_I529L <dbl>, parE_S458T <dbl>, parE_E460D <dbl>,
#> #   parC_E84G <dbl>, qnrS1 <dbl>, marR_S3N <dbl>, `aac(6')-Ib-cr` <dbl>, …
```
…
``` r

# Output table
cipro_mic_upset$summary
#> # A tibble: 103 × 21
#>    marker_list        marker_count     n combination_id   R.n   R.ppv R.ci_lower
#>    <chr>                     <dbl> <int> <fct>          <dbl>   <dbl>      <dbl>
#>  1 ""                            0  2590 0_0_0_0_0_0_0…    10 0.00386    0.00147
#>  2 "qnrB"                        1     1 0_0_0_0_0_0_0…     1 1          1      
#>  3 "parE_E460K, gyrA…            2     1 0_0_0_0_0_0_0…     1 1          1      
#>  4 "parE_D475E"                  1    61 0_0_0_0_0_0_0…     0 0          0      
#>  5 "qnrA1"                       1     2 0_0_0_0_0_0_0…     0 0          0      
#>  6 "gyrA_S83A"                   1     3 0_0_0_0_0_0_0…     0 0          0      
#>  7 "qnrB4"                       1     2 0_0_0_0_0_0_0…     2 1          1      
#>  8 "parE_I355T"                  1    24 0_0_0_0_0_0_0…     0 0          0      
#>  9 "marR_S3N"                    1    38 0_0_0_0_0_0_0…     4 0.105      0.00769
#> 10 "marR_S3N, parE_D…            2     4 0_0_0_0_0_0_0…     0 0          0      
#> # ℹ 93 more rows
#> # ℹ 14 more variables: R.ci_upper <dbl>, R.denom <int>, NWT.n <dbl>,
#> #   NWT.ppv <dbl>, NWT.ci_lower <dbl>, NWT.ci_upper <dbl>, NWT.denom <int>,
#> #   median_excludeRangeValues <dbl>, q25_excludeRangeValues <dbl>,
#> #   q75_excludeRangeValues <dbl>, n_excludeRangeValues <int>,
#> #   median_ignoreRanges <dbl>, q25_ignoreRanges <dbl>, q75_ignoreRanges <dbl>
```
