…
``` r
# Download Staphylococcus aureus genotype data from NCBI, filtering for variants associated with class 'AMINOGLYCOSIDES' or 'TETRACYCLINES'
# NOTE: you may need to add 'PROJECT_ID="xxx"' to the command if you have not set up application default credentials
staph_geno_ncbi_cloud_raw <- query_ncbi_bq_geno(
  taxgroup = "Staphylococcus aureus",
  geno_class = c("AMINOGLYCOSIDE", "TETRACYCLINE")
) %>% filter(biosample_acc %in% staph_ast_ncbi_cloud_raw$BioSample)
```

``` r
staph_geno_ncbi_cloud_raw
#> # A tibble: 119 × 9
#>    biosample_acc `Gene symbol`   Class Subclass `Element type` `Element subtype`
#>    <chr>         <chr>           <chr> <chr>    <chr>          <chr>            
#>  1 SAMN07291566  mepA            TETR… TIGECYC… AMR            AMR              
#>  2 SAMN04901618  ant(9)-Ia       AMIN… SPECTIN… AMR            AMR              
#>  3 SAMN04901605  mepA            TETR… TIGECYC… AMR            AMR              
#>  4 SAMN04901606  mepA            TETR… TIGECYC… AMR            AMR              
#>  5 SAMN07291567  aac(6')-Ie/aph… AMIN… AMIKACI… AMR            AMR              
#>  6 SAMN07291564  mepA            TETR… TIGECYC… AMR            AMR              
#>  7 SAMN04901609  tet(M)          TETR… TETRACY… AMR            AMR              
#>  8 SAMN07291562  mepA            TETR… TIGECYC… AMR            AMR              
#>  9 SAMN04901615  mepA            TETR… TIGECYC… AMR            AMR              
#> 10 SAMN30333622  ant(9)-Ia       AMIN… SPECTIN… AMR            AMR              
#> # ℹ 109 more rows
#> # ℹ 3 more variables: Method <chr>, Hierarchy_node <chr>, scientific_name <chr>

# Import and parse results into AMRgen genotype table
staph_geno_ncbi_cloud <- import_amrfp(staph_geno_ncbi_cloud_raw, sample_col = "biosample_acc")

staph_geno_ncbi_cloud
#> # A tibble: 148 × 18
#>    biosample_acc gene      mutation drug_agent drug_class `variation type` node 
#>    <chr>         <chr>     <chr>    <ab>       <chr>      <chr>            <chr>
#>  1 SAMN07291566  mepA      NA       TGC        Tetracycl… Gene presence d… mepA 
#>  2 SAMN04901618  ant(9)-Ia NA       SPT        Other      Gene presence d… ant(…
#>  3 SAMN04901605  mepA      NA       TGC        Tetracycl… Gene presence d… mepA 
#>  4 SAMN04901606  mepA      NA       TGC        Tetracycl… Gene presence d… mepA 
#>  5 SAMN07291567  aac(6')-… NA       AMK        Aminoglyc… Gene presence d… aac(…
#>  6 SAMN07291567  aac(6')-… NA       GEN        Aminoglyc… Gene presence d… aac(…
#>  7 SAMN07291567  aac(6')-… NA       KAN        Aminoglyc… Gene presence d… aac(…
#>  8 SAMN07291567  aac(6')-… NA       TOB        Aminoglyc… Gene presence d… aac(…
#>  9 SAMN07291564  mepA      NA       TGC        Tetracycl… Gene presence d… mepA 
#> 10 SAMN04901609  tet(M)    NA       NA         Tetracycl… Gene presence d… tet(…
#> # ℹ 138 more rows
#> # ℹ 11 more variables: marker <chr>, marker.label <chr>, `Gene symbol` <chr>,
#> #   Class <chr>, Subclass <chr>, `Element type` <chr>, `Element subtype` <chr>,
#> #   Method <chr>, Hierarchy_node <chr>, scientific_name <chr>,
#> #   subclass_to_parse <chr>
```
…
